src/build/DeBounce_tb.vcd
$date
	Mon Oct 20 12:22:17 2025
$end
$version
	Icarus Verilog
$end
$timescale
	100ps
$end
$scope module DeBounce_tb $end
$var wire 1 ! DB_out $end
$var reg 1 " button_in $end
$var reg 1 # clk $end
$var reg 1 $ n_reset $end
$scope module UUT $end
$var wire 1 " button_in $end
$var wire 1 # clk $end
$var wire 1 $ n_reset $end
$var wire 1 % q_add $end
$var wire 1 & q_reset $end
$var parameter 32 ' N $end
$var reg 1 ! DB_out $end
$var reg 1 ( DFF1 $end
$var reg 1 ) DFF2 $end
$var reg 11 * q_next [10:0] $end
$var reg 11 + q_reg [10:0] $end
$upscope $end
$upscope $end
$enddefinitions $end
$comment Show the parameter values. $end
$dumpall
b1011 '
$end
#0
$dumpvars
bx +
bx *
x)
x(
x&
x%
0$
0#
0"
x!
$end
#100
b1 *
1%
0&
b0 +
0)
0(
1#
#200
0#
#300
1#
#400
0#
#500
1#
#600
0#
#700
1#
#800
0#
#900
1#
#1000
0#
#1100
1#
#1200
0#
#1300
1#
#1400
0#
#1500
1#
#1600
0#
#1700
1#
#1800
0#
#1900
1#
#2000
0#
1$
#2100
b10 *
b1 +
1#
#2200
0#
#2300
b11 *
b10 +
1#
#2400
0#
#2500
b100 *
b11 +
1#
#2600
0#
#2700
b101 *
b100 +
1#
#2800
0#
#2900
b110 *
b101 +
1#
#3000
0#
#3100
b111 *
b110 +
1#
#3200
0#
#3300
b1000 *
b111 +
1#
#3400
0#
#3500
b1001 *
b1000 +
1#
#3600
0#
#3700
b1010 *
b1001 +
1#
#3800
0#
#3900
b1011 *
b1010 +
1#
#4000
0#
#4100
b1100 *
b1011 +
1#
#4200
0#
#4300
b1101 *
b1100 +
1#
#4400
0#
#4500
b1110 *
b1101 +
1#
#4600
0#
#4700
b1111 *
b1110 +
1#
#4800
0#
#4900
b10000 *
b1111 +
1#
#5000
0#
#5100
b10001 *
b10000 +
1#
#5200
0#
#5300
b10010 *
b10001 +
1#
#5400
0#
#5500
b10011 *
b10010 +
1#
#5600
0#
#5700
b10100 *
b10011 +
1#
#5800
0#
#5900
b10101 *
b10100 +
1#
#6000
0#
#6100
b10110 *
b10101 +
1#
#6200
0#
#6300
b10111 *
b10110 +
1#
#6400
0#
#6500
b11000 *
b10111 +
1#
#6600
0#
#6700
b11001 *
b11000 +
1#
#6800
0#
#6900
b11010 *
b11001 +
1#
#7000
0#
#7100
b11011 *
b11010 +
1#
#7200
0#
#7300
b11100 *
b11011 +
1#
#7400
0#
#7500
b11101 *
b11100 +
1#
#7600
0#
#7700
b11110 *
b11101 +
1#
#7800
0#
#7900
b11111 *
b11110 +
1#
#8000
0#
#8100
b100000 *
b11111 +
1#
#8200
0#
#8300
b100001 *
b100000 +
1#
#8400
0#
#8500
b100010 *
b100001 +
1#
#8600
0#
#8700
b100011 *
b100010 +
1#
#8800
0#
#8900
b100100 *
b100011 +
1#
#9000
0#
#9100
b100101 *
b100100 +
1#
#9200
0#
#9300
b100110 *
b100101 +
1#
#9400
0#
#9500
b100111 *
b100110 +
1#
#9600
0#
#9700
b101000 *
b100111 +
1#
#9800
0#
#9900
b101001 *
b101000 +
1#
#10000
0#
#10100
b101010 *
b101001 +
1#
#10200
0#
#10300
b101011 *
b101010 +
1#
#10400
0#
#10500
b101100 *
b101011 +
1#
#10600
0#
#10700
b101101 *
b101100 +
1#
#10800
0#
#10900
b101110 *
b101101 +
1#
#11000
0#
#11100
b101111 *
b101110 +
1#
#11200
0#
#11300
b110000 *
b101111 +
1#
#11400
0#
#11500
b110001 *
b110000 +
1#
#11600
0#
#11700
b110010 *
b110001 +
1#
#11800
0#
#11900
b110011 *
b110010 +
1#
#12000
0#
#12100
b110100 *
b110011 +
1#
#12200
0#
#12300
b110101 *
b110100 +
1#
#12400
0#
#12500
b110110 *
b110101 +
1#
#12600
0#
#12700
b110111 *
b110110 +
1#
#12800
0#
#12900
b111000 *
b110111 +
1#
#13000
0#
#13100
b111001 *
b111000 +
1#
#13200
0#
#13300
b111010 *
b111001 +
1#
#13400
0#
#13500
b111011 *
b111010 +
1#
#13600
0#
#13700
b111100 *
b111011 +
1#
#13800
0#
#13900
b111101 *
b111100 +
1#
#14000
0#
#14100
b111110 *
b111101 +
1#
#14200
0#
#14300
b111111 *
b111110 +
1#
#14400
0#
#14500
b1000000 *
b111111 +
1#
#14600
0#
#14700
b1000001 *
b1000000 +
1#
#14800
0#
#14900
b1000010 *
b1000001 +
1#
#15000
0#
#15100
b1000011 *
b1000010 +
1#
#15200
0#
#15300
b1000100 *
b1000011 +
1#
#15400
0#
#15500
b1000101 *
b1000100 +
1#
#15600
0#
#15700
b1000110 *
b1000101 +
1#
#15800
0#
#15900
b1000111 *
b1000110 +
1#
#16000
0#
#16100
b1001000 *
b1000111 +
1#
#16200
0#
#16300
b1001001 *
b1001000 +
1#
#16400
0#
#16500
b1001010 *
b1001001 +
1#
#16600
0#
#16700
b1001011 *
b1001010 +
1#
#16800
0#
#16900
b1001100 *
b1001011 +
1#
#17000
0#
#17100
b1001101 *
b1001100 +
1#
#17200
0#
#17300
b1001110 *
b1001101 +
1#
#17400
0#
#17500
b1001111 *
b1001110 +
1#
#17600
0#
#17700
b1010000 *
b1001111 +
1#
#17800
0#
#17900
b1010001 *
b1010000 +
1#
#18000
0#
#18100
b1010010 *
b1010001 +
1#
#18200
0#
#18300
b1010011 *
b1010010 +
1#
#18400
0#
#18500
b1010100 *
b1010011 +
1#
#18600
0#
#18700
b1010101 *
b1010100 +
1#
#18800
0#
#18900
b1010110 *
b1010101 +
1#
#19000
0#
#19100
b1010111 *
b1010110 +
1#
#19200
0#
#19300
b1011000 *
b1010111 +
1#
#19400
0#
#19500
b1011001 *
b1011000 +
1#
#19600
0#
#19700
b1011010 *
b1011001 +
1#
#19800
0#
#19900
b1011011 *
b1011010 +
1#
#20000
0#
#20100
b1011100 *
b1011011 +
1#
#20200
0#
#20300
b1011101 *
b1011100 +
1#
#20400
0#
#20500
b1011110 *
b1011101 +
1#
#20600
0#
#20700
b1011111 *
b1011110 +
1#
#20800
0#
#20900
b1100000 *
b1011111 +
1#
#21000
0#
#21100
b1100001 *
b1100000 +
1#
#21200
0#
#21300
b1100010 *
b1100001 +
1#
#21400
0#
#21500
b1100011 *
b1100010 +
1#
#21600
0#
#21700
b1100100 *
b1100011 +
1#
#21800
0#
#21900
b1100101 *
b1100100 +
1#
#22000
0#
#22100
b1100110 *
b1100101 +
1#
#22200
0#
#22300
b1100111 *
b1100110 +
1#
#22400
0#
#22500
b1101000 *
b1100111 +
1#
#22600
0#
#22700
b1101001 *
b1101000 +
1#
#22800
0#
#22900
b1101010 *
b1101001 +
1#
#23000
0#
#23100
b1101011 *
b1101010 +
1#
#23200
0#
#23300
b1101100 *
b1101011 +
1#
#23400
0#
#23500
b1101101 *
b1101100 +
1#
#23600
0#
#23700
b1101110 *
b1101101 +
1#
#23800
0#
#23900
b1101111 *
b1101110 +
1#
#24000
0#
#24100
b1110000 *
b1101111 +
1#
#24200
0#
#24300
b1110001 *
b1110000 +
1#
#24400
0#
#24500
b1110010 *
b1110001 +
1#
#24600
0#
#24700
b1110011 *
b1110010 +
1#
#24800
0#
#24900
b1110100 *
b1110011 +
1#
#25000
0#
#25100
b1110101 *
b1110100 +
1#
#25200
0#
#25300
b1110110 *
b1110101 +
1#
#25400
0#
#25500
b1110111 *
b1110110 +
1#
#25600
0#
#25700
b1111000 *
b1110111 +
1#
#25800
0#
#25900
b1111001 *
b1111000 +
1#
#26000
0#
#26100
b1111010 *
b1111001 +
1#
#26200
0#
#26300
b1111011 *
b1111010 +
1#
#26400
0#
#26500
b1111100 *
b1111011 +
1#
#26600
0#
#26700
b1111101 *
b1111100 +
1#
#26800
0#
#26900
b1111110 *
b1111101 +
1#
#27000
0#
#27100
b1111111 *
b1111110 +
1#
#27200
0#
#27300
b10000000 *
b1111111 +
1#
#27400
0#
#27500
b10000001 *
b10000000 +
1#
#27600
0#
#27700
b10000010 *
b10000001 +
1#
#27800
0#
#27900
b10000011 *
b10000010 +
1#
#28000
0#
#28100
b10000100 *
b10000011 +
1#
#28200
0#
#28300
b10000101 *
b10000100 +
1#
#28400
0#
#28500
b10000110 *
b10000101 +
1#
#28600
0#
#28700
b10000111 *
b10000110 +
1#
#28800
0#
#28900
b10001000 *
b10000111 +
1#
#29000
0#
#29100
b10001001 *
b10001000 +
1#
#29200
0#
#29300
b10001010 *
b10001001 +
1#
#29400
0#
#29500
b10001011 *
b10001010 +
1#
#29600
0#
#29700
b10001100 *
b10001011 +
1#
#29800
0#
#29900
b10001101 *
b10001100 +
1#
#30000
0#
#30100
b10001110 *
b10001101 +
1#
#30200
0#
#30300
b10001111 *
b10001110 +
1#
#30400
0#
#30500
b10010000 *
b10001111 +
1#
#30600
0#
#30700
b10010001 *
b10010000 +
1#
#30800
0#
#30900
b10010010 *
b10010001 +
1#
#31000
0#
#31100
b10010011 *
b10010010 +
1#
#31200
0#
#31300
b10010100 *
b10010011 +
1#
#31400
0#
#31500
b10010101 *
b10010100 +
1#
#31600
0#
#31700
b10010110 *
b10010101 +
1#
#31800
0#
#31900
b10010111 *
b10010110 +
1#
#32000
0#
#32100
b10011000 *
b10010111 +
1#
#32200
0#
#32300
b10011001 *
b10011000 +
1#
#32400
0#
#32500
b10011010 *
b10011001 +
1#
#32600
0#
#32700
b10011011 *
b10011010 +
1#
#32800
0#
#32900
b10011100 *
b10011011 +
1#
#33000
0#
#33100
b10011101 *
b10011100 +
1#
#33200
0#
#33300
b10011110 *
b10011101 +
1#
#33400
0#
#33500
b10011111 *
b10011110 +
1#
#33600
0#
#33700
b10100000 *
b10011111 +
1#
#33800
0#
#33900
b10100001 *
b10100000 +
1#
#34000
0#
#34100
b10100010 *
b10100001 +
1#
#34200
0#
#34300
b10100011 *
b10100010 +
1#
#34400
0#
#34500
b10100100 *
b10100011 +
1#
#34600
0#
#34700
b10100101 *
b10100100 +
1#
#34800
0#
#34900
b10100110 *
b10100101 +
1#
#35000
0#
#35100
b10100111 *
b10100110 +
1#
#35200
0#
#35300
b10101000 *
b10100111 +
1#
#35400
0#
#35500
b10101001 *
b10101000 +
1#
#35600
0#
#35700
b10101010 *
b10101001 +
1#
#35800
0#
#35900
b10101011 *
b10101010 +
1#
#36000
0#
#36100
b10101100 *
b10101011 +
1#
#36200
0#
#36300
b10101101 *
b10101100 +
1#
#36400
0#
#36500
b10101110 *
b10101101 +
1#
#36600
0#
#36700
b10101111 *
b10101110 +
1#
#36800
0#
#36900
b10110000 *
b10101111 +
1#
#37000
0#
#37100
b10110001 *
b10110000 +
1#
#37200
0#
#37300
b10110010 *
b10110001 +
1#
#37400
0#
#37500
b10110011 *
b10110010 +
1#
#37600
0#
#37700
b10110100 *
b10110011 +
1#
#37800
0#
#37900
b10110101 *
b10110100 +
1#
#38000
0#
#38100
b10110110 *
b10110101 +
1#
#38200
0#
#38300
b10110111 *
b10110110 +
1#
#38400
0#
#38500
b10111000 *
b10110111 +
1#
#38600
0#
#38700
b10111001 *
b10111000 +
1#
#38800
0#
#38900
b10111010 *
b10111001 +
1#
#39000
0#
#39100
b10111011 *
b10111010 +
1#
#39200
0#
#39300
b10111100 *
b10111011 +
1#
#39400
0#
#39500
b10111101 *
b10111100 +
1#
#39600
0#
#39700
b10111110 *
b10111101 +
1#
#39800
0#
#39900
b10111111 *
b10111110 +
1#
#40000
0#
#40100
b11000000 *
b10111111 +
1#
#40200
0#
#40300
b11000001 *
b11000000 +
1#
#40400
0#
#40500
b11000010 *
b11000001 +
1#
#40600
0#
#40700
b11000011 *
b11000010 +
1#
#40800
0#
#40900
b11000100 *
b11000011 +
1#
#41000
0#
#41100
b11000101 *
b11000100 +
1#
#41200
0#
#41300
b11000110 *
b11000101 +
1#
#41400
0#
#41500
b11000111 *
b11000110 +
1#
#41600
0#
#41700
b11001000 *
b11000111 +
1#
#41800
0#
#41900
b11001001 *
b11001000 +
1#
#42000
0#
#42100
b11001010 *
b11001001 +
1#
#42200
0#
#42300
b11001011 *
b11001010 +
1#
#42400
0#
#42500
b11001100 *
b11001011 +
1#
#42600
0#
#42700
b11001101 *
b11001100 +
1#
#42800
0#
#42900
b11001110 *
b11001101 +
1#
#43000
0#
#43100
b11001111 *
b11001110 +
1#
#43200
0#
#43300
b11010000 *
b11001111 +
1#
#43400
0#
#43500
b11010001 *
b11010000 +
1#
#43600
0#
#43700
b11010010 *
b11010001 +
1#
#43800
0#
#43900
b11010011 *
b11010010 +
1#
#44000
0#
#44100
b11010100 *
b11010011 +
1#
#44200
0#
#44300
b11010101 *
b11010100 +
1#
#44400
0#
#44500
b11010110 *
b11010101 +
1#
#44600
0#
#44700
b11010111 *
b11010110 +
1#
#44800
0#
#44900
b11011000 *
b11010111 +
1#
#45000
0#
#45100
b11011001 *
b11011000 +
1#
#45200
0#
#45300
b11011010 *
b11011001 +
1#
#45400
0#
#45500
b11011011 *
b11011010 +
1#
#45600
0#
#45700
b11011100 *
b11011011 +
1#
#45800
0#
#45900
b11011101 *
b11011100 +
1#
#46000
0#
#46100
b11011110 *
b11011101 +
1#
#46200
0#
#46300
b11011111 *
b11011110 +
1#
#46400
0#
#46500
b11100000 *
b11011111 +
1#
#46600
0#
#46700
b11100001 *
b11100000 +
1#
#46800
0#
#46900
b11100010 *
b11100001 +
1#
#47000
0#
#47100
b11100011 *
b11100010 +
1#
#47200
0#
#47300
b11100100 *
b11100011 +
1#
#47400
0#
#47500
b11100101 *
b11100100 +
1#
#47600
0#
#47700
b11100110 *
b11100101 +
1#
#47800
0#
#47900
b11100111 *
b11100110 +
1#
#48000
0#
#48100
b11101000 *
b11100111 +
1#
#48200
0#
#48300
b11101001 *
b11101000 +
1#
#48400
0#
#48500
b11101010 *
b11101001 +
1#
#48600
0#
#48700
b11101011 *
b11101010 +
1#
#48800
0#
#48900
b11101100 *
b11101011 +
1#
#49000
0#
#49100
b11101101 *
b11101100 +
1#
#49200
0#
#49300
b11101110 *
b11101101 +
1#
#49400
0#
#49500
b11101111 *
b11101110 +
1#
#49600
0#
#49700
b11110000 *
b11101111 +
1#
#49800
0#
#49900
b11110001 *
b11110000 +
1#
#50000
0#
#50100
b11110010 *
b11110001 +
1#
#50200
0#
#50300
b11110011 *
b11110010 +
1#
#50400
0#
#50500
b11110100 *
b11110011 +
1#
#50600
0#
#50700
b11110101 *
b11110100 +
1#
#50800
0#
#50900
b11110110 *
b11110101 +
1#
#51000
0#
#51100
b11110111 *
b11110110 +
1#
#51200
0#
#51300
b11111000 *
b11110111 +
1#
#51400
0#
#51500
b11111001 *
b11111000 +
1#
#51600
0#
#51700
b11111010 *
b11111001 +
1#
#51800
0#
#51900
b11111011 *
b11111010 +
1#
#52000
0#
#52100
b11111100 *
b11111011 +
1#
#52200
0#
#52300
b11111101 *
b11111100 +
1#
#52400
0#
#52500
b11111110 *
b11111101 +
1#
#52600
0#
#52700
b11111111 *
b11111110 +
1#
#52800
0#
#52900
b100000000 *
b11111111 +
1#
#53000
0#
#53100
b100000001 *
b100000000 +
1#
#53200
0#
#53300
b100000010 *
b100000001 +
1#
#53400
0#
#53500
b100000011 *
b100000010 +
1#
#53600
0#
#53700
b100000100 *
b100000011 +
1#
#53800
0#
#53900
b100000101 *
b100000100 +
1#
#54000
0#
#54100
b100000110 *
b100000101 +
1#
#54200
0#
#54300
b100000111 *
b100000110 +
1#
#54400
0#
#54500
b100001000 *
b100000111 +
1#
#54600
0#
#54700
b100001001 *
b100001000 +
1#
#54800
0#
#54900
b100001010 *
b100001001 +
1#
#55000
0#
#55100
b100001011 *
b100001010 +
1#
#55200
0#
#55300
b100001100 *
b100001011 +
1#
#55400
0#
#55500
b100001101 *
b100001100 +
1#
#55600
0#
#55700
b100001110 *
b100001101 +
1#
#55800
0#
#55900
b100001111 *
b100001110 +
1#
#56000
0#
#56100
b100010000 *
b100001111 +
1#
#56200
0#
#56300
b100010001 *
b100010000 +
1#
#56400
0#
#56500
b100010010 *
b100010001 +
1#
#56600
0#
#56700
b100010011 *
b100010010 +
1#
#56800
0#
#56900
b100010100 *
b100010011 +
1#
#57000
0#
#57100
b100010101 *
b100010100 +
1#
#57200
0#
#57300
b100010110 *
b100010101 +
1#
#57400
0#
#57500
b100010111 *
b100010110 +
1#
#57600
0#
#57700
b100011000 *
b100010111 +
1#
#57800
0#
#57900
b100011001 *
b100011000 +
1#
#58000
0#
#58100
b100011010 *
b100011001 +
1#
#58200
0#
#58300
b100011011 *
b100011010 +
1#
#58400
0#
#58500
b100011100 *
b100011011 +
1#
#58600
0#
#58700
b100011101 *
b100011100 +
1#
#58800
0#
#58900
b100011110 *
b100011101 +
1#
#59000
0#
#59100
b100011111 *
b100011110 +
1#
#59200
0#
#59300
b100100000 *
b100011111 +
1#
#59400
0#
#59500
b100100001 *
b100100000 +
1#
#59600
0#
#59700
b100100010 *
b100100001 +
1#
#59800
0#
#59900
b100100011 *
b100100010 +
1#
#60000
0#
#60100
b100100100 *
b100100011 +
1#
#60200
0#
#60300
b100100101 *
b100100100 +
1#
#60400
0#
#60500
b100100110 *
b100100101 +
1#
#60600
0#
#60700
b100100111 *
b100100110 +
1#
#60800
0#
#60900
b100101000 *
b100100111 +
1#
#61000
0#
#61100
b100101001 *
b100101000 +
1#
#61200
0#
#61300
b100101010 *
b100101001 +
1#
#61400
0#
#61500
b100101011 *
b100101010 +
1#
#61600
0#
#61700
b100101100 *
b100101011 +
1#
#61800
0#
#61900
b100101101 *
b100101100 +
1#
#62000
0#
#62100
b100101110 *
b100101101 +
1#
#62200
0#
#62300
b100101111 *
b100101110 +
1#
#62400
0#
#62500
b100110000 *
b100101111 +
1#
#62600
0#
#62700
b100110001 *
b100110000 +
1#
#62800
0#
#62900
b100110010 *
b100110001 +
1#
#63000
0#
#63100
b100110011 *
b100110010 +
1#
#63200
0#
#63300
b100110100 *
b100110011 +
1#
#63400
0#
#63500
b100110101 *
b100110100 +
1#
#63600
0#
#63700
b100110110 *
b100110101 +
1#
#63800
0#
#63900
b100110111 *
b100110110 +
1#
#64000
0#
#64100
b100111000 *
b100110111 +
1#
#64200
0#
#64300
b100111001 *
b100111000 +
1#
#64400
0#
#64500
b100111010 *
b100111001 +
1#
#64600
0#
#64700
b100111011 *
b100111010 +
1#
#64800
0#
#64900
b100111100 *
b100111011 +
1#
#65000
0#
#65100
b100111101 *
b100111100 +
1#
#65200
0#
#65300
b100111110 *
b100111101 +
1#
#65400
0#
#65500
b100111111 *
b100111110 +
1#
#65600
0#
#65700
b101000000 *
b100111111 +
1#
#65800
0#
#65900
b101000001 *
b101000000 +
1#
#66000
0#
#66100
b101000010 *
b101000001 +
1#
#66200
0#
#66300
b101000011 *
b101000010 +
1#
#66400
0#
#66500
b101000100 *
b101000011 +
1#
#66600
0#
#66700
b101000101 *
b101000100 +
1#
#66800
0#
#66900
b101000110 *
b101000101 +
1#
#67000
0#
#67100
b101000111 *
b101000110 +
1#
#67200
0#
#67300
b101001000 *
b101000111 +
1#
#67400
0#
#67500
b101001001 *
b101001000 +
1#
#67600
0#
#67700
b101001010 *
b101001001 +
1#
#67800
0#
#67900
b101001011 *
b101001010 +
1#
#68000
0#
#68100
b101001100 *
b101001011 +
1#
#68200
0#
#68300
b101001101 *
b101001100 +
1#
#68400
0#
#68500
b101001110 *
b101001101 +
1#
#68600
0#
#68700
b101001111 *
b101001110 +
1#
#68800
0#
#68900
b101010000 *
b101001111 +
1#
#69000
0#
#69100
b101010001 *
b101010000 +
1#
#69200
0#
#69300
b101010010 *
b101010001 +
1#
#69400
0#
#69500
b101010011 *
b101010010 +
1#
#69600
0#
#69700
b101010100 *
b101010011 +
1#
#69800
0#
#69900
b101010101 *
b101010100 +
1#
#70000
0#
#70100
b101010110 *
b101010101 +
1#
#70200
0#
#70300
b101010111 *
b101010110 +
1#
#70400
0#
#70500
b101011000 *
b101010111 +
1#
#70600
0#
#70700
b101011001 *
b101011000 +
1#
#70800
0#
#70900
b101011010 *
b101011001 +
1#
#71000
0#
#71100
b101011011 *
b101011010 +
1#
#71200
0#
#71300
b101011100 *
b101011011 +
1#
#71400
0#
#71500
b101011101 *
b101011100 +
1#
#71600
0#
#71700
b101011110 *
b101011101 +
1#
#71800
0#
#71900
b101011111 *
b101011110 +
1#
#72000
0#
#72100
b101100000 *
b101011111 +
1#
#72200
0#
#72300
b101100001 *
b101100000 +
1#
#72400
0#
#72500
b101100010 *
b101100001 +
1#
#72600
0#
#72700
b101100011 *
b101100010 +
1#
#72800
0#
#72900
b101100100 *
b101100011 +
1#
#73000
0#
#73100
b101100101 *
b101100100 +
1#
#73200
0#
#73300
b101100110 *
b101100101 +
1#
#73400
0#
#73500
b101100111 *
b101100110 +
1#
#73600
0#
#73700
b101101000 *
b101100111 +
1#
#73800
0#
#73900
b101101001 *
b101101000 +
1#
#74000
0#
#74100
b101101010 *
b101101001 +
1#
#74200
0#
#74300
b101101011 *
b101101010 +
1#
#74400
0#
#74500
b101101100 *
b101101011 +
1#
#74600
0#
#74700
b101101101 *
b101101100 +
1#
#74800
0#
#74900
b101101110 *
b101101101 +
1#
#75000
0#
#75100
b101101111 *
b101101110 +
1#
#75200
0#
#75300
b101110000 *
b101101111 +
1#
#75400
0#
#75500
b101110001 *
b101110000 +
1#
#75600
0#
#75700
b101110010 *
b101110001 +
1#
#75800
0#
#75900
b101110011 *
b101110010 +
1#
#76000
0#
#76100
b101110100 *
b101110011 +
1#
#76200
0#
#76300
b101110101 *
b101110100 +
1#
#76400
0#
#76500
b101110110 *
b101110101 +
1#
#76600
0#
#76700
b101110111 *
b101110110 +
1#
#76800
0#
#76900
b101111000 *
b101110111 +
1#
#77000
0#
#77100
b101111001 *
b101111000 +
1#
#77200
0#
#77300
b101111010 *
b101111001 +
1#
#77400
0#
#77500
b101111011 *
b101111010 +
1#
#77600
0#
#77700
b101111100 *
b101111011 +
1#
#77800
0#
#77900
b101111101 *
b101111100 +
1#
#78000
0#
#78100
b101111110 *
b101111101 +
1#
#78200
0#
#78300
b101111111 *
b101111110 +
1#
#78400
0#
#78500
b110000000 *
b101111111 +
1#
#78600
0#
#78700
b110000001 *
b110000000 +
1#
#78800
0#
#78900
b110000010 *
b110000001 +
1#
#79000
0#
#79100
b110000011 *
b110000010 +
1#
#79200
0#
#79300
b110000100 *
b110000011 +
1#
#79400
0#
#79500
b110000101 *
b110000100 +
1#
#79600
0#
#79700
b110000110 *
b110000101 +
1#
#79800
0#
#79900
b110000111 *
b110000110 +
1#
#80000
0#
#80100
b110001000 *
b110000111 +
1#
#80200
0#
#80300
b110001001 *
b110001000 +
1#
#80400
0#
#80500
b110001010 *
b110001001 +
1#
#80600
0#
#80700
b110001011 *
b110001010 +
1#
#80800
0#
#80900
b110001100 *
b110001011 +
1#
#81000
0#
#81100
b110001101 *
b110001100 +
1#
#81200
0#
#81300
b110001110 *
b110001101 +
1#
#81400
0#
#81500
b110001111 *
b110001110 +
1#
#81600
0#
#81700
b110010000 *
b110001111 +
1#
#81800
0#
#81900
b110010001 *
b110010000 +
1#
#82000
0#
#82100
b110010010 *
b110010001 +
1#
#82200
0#
#82300
b110010011 *
b110010010 +
1#
#82400
0#
#82500
b110010100 *
b110010011 +
1#
#82600
0#
#82700
b110010101 *
b110010100 +
1#
#82800
0#
#82900
b110010110 *
b110010101 +
1#
#83000
0#
#83100
b110010111 *
b110010110 +
1#
#83200
0#
#83300
b110011000 *
b110010111 +
1#
#83400
0#
#83500
b110011001 *
b110011000 +
1#
#83600
0#
#83700
b110011010 *
b110011001 +
1#
#83800
0#
#83900
b110011011 *
b110011010 +
1#
#84000
0#
#84100
b110011100 *
b110011011 +
1#
#84200
0#
#84300
b110011101 *
b110011100 +
1#
#84400
0#
#84500
b110011110 *
b110011101 +
1#
#84600
0#
#84700
b110011111 *
b110011110 +
1#
#84800
0#
#84900
b110100000 *
b110011111 +
1#
#85000
0#
#85100
b110100001 *
b110100000 +
1#
#85200
0#
#85300
b110100010 *
b110100001 +
1#
#85400
0#
#85500
b110100011 *
b110100010 +
1#
#85600
0#
#85700
b110100100 *
b110100011 +
1#
#85800
0#
#85900
b110100101 *
b110100100 +
1#
#86000
0#
#86100
b110100110 *
b110100101 +
1#
#86200
0#
#86300
b110100111 *
b110100110 +
1#
#86400
0#
#86500
b110101000 *
b110100111 +
1#
#86600
0#
#86700
b110101001 *
b110101000 +
1#
#86800
0#
#86900
b110101010 *
b110101001 +
1#
#87000
0#
#87100
b110101011 *
b110101010 +
1#
#87200
0#
#87300
b110101100 *
b110101011 +
1#
#87400
0#
#87500
b110101101 *
b110101100 +
1#
#87600
0#
#87700
b110101110 *
b110101101 +
1#
#87800
0#
#87900
b110101111 *
b110101110 +
1#
#88000
0#
#88100
b110110000 *
b110101111 +
1#
#88200
0#
#88300
b110110001 *
b110110000 +
1#
#88400
0#
#88500
b110110010 *
b110110001 +
1#
#88600
0#
#88700
b110110011 *
b110110010 +
1#
#88800
0#
#88900
b110110100 *
b110110011 +
1#
#89000
0#
#89100
b110110101 *
b110110100 +
1#
#89200
0#
#89300
b110110110 *
b110110101 +
1#
#89400
0#
#89500
b110110111 *
b110110110 +
1#
#89600
0#
#89700
b110111000 *
b110110111 +
1#
#89800
0#
#89900
b110111001 *
b110111000 +
1#
#90000
0#
#90100
b110111010 *
b110111001 +
1#
#90200
0#
#90300
b110111011 *
b110111010 +
1#
#90400
0#
#90500
b110111100 *
b110111011 +
1#
#90600
0#
#90700
b110111101 *
b110111100 +
1#
#90800
0#
#90900
b110111110 *
b110111101 +
1#
#91000
0#
#91100
b110111111 *
b110111110 +
1#
#91200
0#
#91300
b111000000 *
b110111111 +
1#
#91400
0#
#91500
b111000001 *
b111000000 +
1#
#91600
0#
#91700
b111000010 *
b111000001 +
1#
#91800
0#
#91900
b111000011 *
b111000010 +
1#
#92000
0#
#92100
b111000100 *
b111000011 +
1#
#92200
0#
#92300
b111000101 *
b111000100 +
1#
#92400
0#
#92500
b111000110 *
b111000101 +
1#
#92600
0#
#92700
b111000111 *
b111000110 +
1#
#92800
0#
#92900
b111001000 *
b111000111 +
1#
#93000
0#
#93100
b111001001 *
b111001000 +
1#
#93200
0#
#93300
b111001010 *
b111001001 +
1#
#93400
0#
#93500
b111001011 *
b111001010 +
1#
#93600
0#
#93700
b111001100 *
b111001011 +
1#
#93800
0#
#93900
b111001101 *
b111001100 +
1#
#94000
0#
#94100
b111001110 *
b111001101 +
1#
#94200
0#
#94300
b111001111 *
b111001110 +
1#
#94400
0#
#94500
b111010000 *
b111001111 +
1#
#94600
0#
#94700
b111010001 *
b111010000 +
1#
#94800
0#
#94900
b111010010 *
b111010001 +
1#
#95000
0#
#95100
b111010011 *
b111010010 +
1#
#95200
0#
#95300
b111010100 *
b111010011 +
1#
#95400
0#
#95500
b111010101 *
b111010100 +
1#
#95600
0#
#95700
b111010110 *
b111010101 +
1#
#95800
0#
#95900
b111010111 *
b111010110 +
1#
#96000
0#
#96100
b111011000 *
b111010111 +
1#
#96200
0#
#96300
b111011001 *
b111011000 +
1#
#96400
0#
#96500
b111011010 *
b111011001 +
1#
#96600
0#
#96700
b111011011 *
b111011010 +
1#
#96800
0#
#96900
b111011100 *
b111011011 +
1#
#97000
0#
#97100
b111011101 *
b111011100 +
1#
#97200
0#
#97300
b111011110 *
b111011101 +
1#
#97400
0#
#97500
b111011111 *
b111011110 +
1#
#97600
0#
#97700
b111100000 *
b111011111 +
1#
#97800
0#
#97900
b111100001 *
b111100000 +
1#
#98000
0#
#98100
b111100010 *
b111100001 +
1#
#98200
0#
#98300
b111100011 *
b111100010 +
1#
#98400
0#
#98500
b111100100 *
b111100011 +
1#
#98600
0#
#98700
b111100101 *
b111100100 +
1#
#98800
0#
#98900
b111100110 *
b111100101 +
1#
#99000
0#
#99100
b111100111 *
b111100110 +
1#
#99200
0#
#99300
b111101000 *
b111100111 +
1#
#99400
0#
#99500
b111101001 *
b111101000 +
1#
#99600
0#
#99700
b111101010 *
b111101001 +
1#
#99800
0#
#99900
b111101011 *
b111101010 +
1#
#100000
0#
#100100
b111101100 *
b111101011 +
1#
#100200
0#
#100300
b111101101 *
b111101100 +
1#
#100400
0#
#100500
b111101110 *
b111101101 +
1#
#100600
0#
#100700
b111101111 *
b111101110 +
1#
#100800
0#
#100900
b111110000 *
b111101111 +
1#
#101000
0#
#101100
b111110001 *
b111110000 +
1#
#101200
0#
#101300
b111110010 *
b111110001 +
1#
#101400
0#
#101500
b111110011 *
b111110010 +
1#
#101600
0#
#101700
b111110100 *
b111110011 +
1#
#101800
0#
#101900
b111110101 *
b111110100 +
1#
#102000
0#
#102100
b111110110 *
b111110101 +
1#
#102200
0#
#102300
b111110111 *
b111110110 +
1#
#102400
0#
#102500
b111111000 *
b111110111 +
1#
#102600
0#
#102700
b111111001 *
b111111000 +
1#
#102800
0#
#102900
b111111010 *
b111111001 +
1#
#103000
0#
#103100
b111111011 *
b111111010 +
1#
#103200
0#
#103300
b111111100 *
b111111011 +
1#
#103400
0#
#103500
b111111101 *
b111111100 +
1#
#103600
0#
#103700
b111111110 *
b111111101 +
1#
#103800
0#
#103900
b111111111 *
b111111110 +
1#
#104000
0#
#104100
b1000000000 *
b111111111 +
1#
#104200
0#
#104300
b1000000001 *
b1000000000 +
1#
#104400
0#
#104500
b1000000010 *
b1000000001 +
1#
#104600
0#
#104700
b1000000011 *
b1000000010 +
1#
#104800
0#
#104900
b1000000100 *
b1000000011 +
1#
#105000
0#
#105100
b1000000101 *
b1000000100 +
1#
#105200
0#
#105300
b1000000110 *
b1000000101 +
1#
#105400
0#
#105500
b1000000111 *
b1000000110 +
1#
#105600
0#
#105700
b1000001000 *
b1000000111 +
1#
#105800
0#
